<svg xmlns="http://www.w3.org/2000/svg" width="46.491" height="45.208" viewBox="0 0 46.491 45.208">
  <g id="Group_2111" data-name="Group 2111" transform="translate(-13760.961 -4305.262)">
    <path id="Path_2319" data-name="Path 2319" d="M-73.343,259.052s-13.565-9.1-22.134-7.943c0,0-4.609-.2-14.432,5.543a39.826,39.826,0,0,1,25.944-20.438Z" transform="translate(13879.732 4090.43)" fill="none" stroke="#fff" stroke-miterlimit="10" stroke-width="0.7"/>
    <path id="Path_2320" data-name="Path 2320" d="M-116.282,218.409a47.214,47.214,0,0,1,30.861-12.917q1.73-.149,3.489-.191a129.742,129.742,0,0,0-15.131-.452l-6.336-13.476-7.051,14.993a123.292,123.292,0,0,0-17.224,4.641l10.4,8.189Q-116.784,218.793-116.282,218.409Z" transform="translate(13889.354 4114.712)" fill="none" stroke="#fff" stroke-miterlimit="10" stroke-width="0.7"/>
  </g>
</svg>
