<svg xmlns="http://www.w3.org/2000/svg" width="51.502" height="56.203" viewBox="0 0 51.502 56.203">
  <g id="Group_8" data-name="Group 8" transform="translate(123.076 1211.19)">
    <path id="Path_1" data-name="Path 1" d="M91.1,175.81h0l-19.54-.06,7.39-21.17a1.3,1.3,0,0,0-.36-1.38,1.188,1.188,0,0,0-.76-.26,1.137,1.137,0,0,0-.9.42c-2.76,3.35-5.6,6.82-8.37,10.27L51.69,184.35a1.282,1.282,0,0,0-.25.76,1.136,1.136,0,0,0,1.16,1.16l19.54.06L64.75,207.5a1.2,1.2,0,0,0,1.23,1.64,1.118,1.118,0,0,0,.79-.41c2.94-3.61,5.79-7.03,8.56-10.33,5.59-6.73,11.36-13.69,16.74-20.65a1.2,1.2,0,0,0,.25-.7A1.236,1.236,0,0,0,91.1,175.81Zm-2.67,2.71c-5,6.4-10.13,12.56-14.92,18.28-.55.67-1.12,1.35-1.68,2.02s-1.13,1.34-1.68,2.01l-.9,1.1,5.72-16.37a1.228,1.228,0,0,0-.07-.94,1.1,1.1,0,0,0-.68-.57,1.507,1.507,0,0,0-.48-.05l-18.62-.06.33-.41q3.75-4.575,7.48-9.16t7.49-9.17l4.08-5.03L68.77,176.5a1.228,1.228,0,0,0,.07.94,1.1,1.1,0,0,0,.68.57,1.507,1.507,0,0,0,.48.05l18.72.06Z" transform="translate(-169.256 -1364.13)" fill="#eca154"/>
    <path id="Path_2" data-name="Path 2" d="M60.8,201.14a23.672,23.672,0,0,1-8.96-8.59,23.287,23.287,0,0,1-3.28-11.92,22.914,22.914,0,0,1,5.07-14.46,23.254,23.254,0,0,1,12.97-8.22,1.185,1.185,0,0,0,.77-.56,1.125,1.125,0,0,0,.14-.85h0a1.208,1.208,0,0,0-1.16-.94,1.007,1.007,0,0,0-.25.03,25.171,25.171,0,0,0-14.35,9.02,25.7,25.7,0,0,0,7.93,38.61,1.161,1.161,0,0,0,1.61-.5,1.263,1.263,0,0,0,.09-.93A1.132,1.132,0,0,0,60.8,201.14Z" transform="translate(-169.256 -1364.13)" fill="#eca154"/>
    <path id="Path_3" data-name="Path 3" d="M84.44,158.11a1.146,1.146,0,0,0-.57-.14,1.2,1.2,0,0,0-1.05.59,1.217,1.217,0,0,0,.45,1.62,23.453,23.453,0,0,1,8.83,8.52,23.3,23.3,0,0,1-15.08,34.59,1.158,1.158,0,0,0-.91,1.41,1.215,1.215,0,0,0,.52.76,1.154,1.154,0,0,0,.89.15,25.815,25.815,0,0,0,20.16-25.12,24.69,24.69,0,0,0-3.51-12.95A25.528,25.528,0,0,0,84.44,158.11Z" transform="translate(-169.256 -1364.13)" fill="#eca154"/>
  </g>
</svg>
